<?xml version="1.0" encoding="UTF-8" standalone="no"?>
<!-- Created with Inkscape (http://www.inkscape.org/) -->

<svg
   xmlns:dc="http://purl.org/dc/elements/1.1/"
   xmlns:cc="http://creativecommons.org/ns#"
   xmlns:rdf="http://www.w3.org/1999/02/22-rdf-syntax-ns#"
   xmlns:svg="http://www.w3.org/2000/svg"
   xmlns="http://www.w3.org/2000/svg"
   xmlns:sodipodi="http://sodipodi.sourceforge.net/DTD/sodipodi-0.dtd"
   xmlns:inkscape="http://www.inkscape.org/namespaces/inkscape"
   version="1.1"
   id="svg2"
   xml:space="preserve"
   width="453.42899"
   height="182.37286"
   viewBox="0 0 453.42899 182.37287"
   sodipodi:docname="coverage2.svg"
   inkscape:version="0.92.4 5da689c313, 2019-01-14"><metadata
     id="metadata8"><rdf:RDF><cc:Work
         rdf:about=""><dc:format>image/svg+xml</dc:format><dc:type
           rdf:resource="http://purl.org/dc/dcmitype/StillImage" /><dc:title></dc:title></cc:Work></rdf:RDF></metadata><defs
     id="defs6"><clipPath
       clipPathUnits="userSpaceOnUse"
       id="clipPath18"><path
         d="M 120.83333,120.83333 H 2362.5 V 3390.5821 H 120.83333 Z"
         id="path16"
         inkscape:connector-curvature="0"
         style="clip-rule:evenodd" /></clipPath></defs><sodipodi:namedview
     pagecolor="#ffffff"
     bordercolor="#666666"
     borderopacity="1"
     objecttolerance="10"
     gridtolerance="10"
     guidetolerance="10"
     inkscape:pageopacity="0"
     inkscape:pageshadow="2"
     inkscape:window-width="1920"
     inkscape:window-height="953"
     id="namedview4"
     showgrid="false"
     fit-margin-top="0"
     fit-margin-left="0"
     fit-margin-right="0"
     fit-margin-bottom="0"
     inkscape:zoom="1.1892616"
     inkscape:cx="375.94433"
     inkscape:cy="147.77745"
     inkscape:window-x="0"
     inkscape:window-y="108"
     inkscape:window-maximized="0"
     inkscape:current-layer="g10" /><g
     id="g10"
     inkscape:groupmode="layer"
     inkscape:label="coverage1"
     transform="matrix(0.31999998,0,0,0.31999998,-44.388164,-38.66545)"><g
       id="g6636"><path
         d="m 138.71302,120.82954 h 156.44732 v 33.52442 H 138.71302 Z"
         style="fill:#efe383;fill-opacity:1;fill-rule:nonzero;stroke:none;stroke-width:2.23496175"
         id="path26"
         inkscape:connector-curvature="0" /><text
         y="147.64908"
         x="208.68217"
         style="font-variant:normal;font-weight:normal;font-size:29.05450249px;font-family:'DejaVu Sans Mono';-inkscape-font-specification:DejaVuSansMono;writing-mode:lr-tb;fill:#000000;fill-opacity:1;fill-rule:nonzero;stroke:none;stroke-width:2.23496175"
         id="text30"><tspan
           style="stroke-width:2.23496175"
           x="208.68217 226.17445 243.66675 261.15903 278.65131"
           y="147.64908"
           sodipodi:role="line"
           id="tspan28">1348 </tspan></text>
<path
         d="m 295.16034,120.82954 h 876.10496 v 33.52442 H 295.16034 Z"
         style="fill:#cad7fe;fill-opacity:1;fill-rule:nonzero;stroke:none;stroke-width:2.23496175"
         id="path32"
         inkscape:connector-curvature="0" /><text
         y="147.64908"
         x="383.59958"
         style="font-variant:normal;font-weight:normal;font-size:29.05450249px;font-family:'DejaVu Sans Mono';-inkscape-font-specification:DejaVuSansMono;writing-mode:lr-tb;fill:#000000;fill-opacity:1;fill-rule:nonzero;stroke:none;stroke-width:2.23496175"
         id="text36"><tspan
           style="stroke-width:2.23496175"
           x="383.59958 401.09186 418.58414 436.07642 453.56873 471.061 488.55328 506.04556 523.53784 750.93756 768.42987 785.92212 803.41443 820.90674 838.39899 855.8913 873.38354 890.87585 908.36816 925.86041 943.35272 960.84497 978.33728 995.82959 1013.3218 1030.8141 1048.3064 1065.7987 1083.291 1100.7833 1118.2755 1135.7678 1153.2601"
           y="147.64908"
           sodipodi:role="line"
           id="tspan34">102783 : if (rec_trig = '1') then</tspan></text>
<path
         d="m 138.71302,154.35396 h 156.44732 v 33.52443 H 138.71302 Z"
         style="fill:#efe383;fill-opacity:1;fill-rule:nonzero;stroke:none;stroke-width:2.23496175"
         id="path38"
         inkscape:connector-curvature="0" /><text
         y="181.17351"
         x="208.68217"
         style="font-variant:normal;font-weight:normal;font-size:29.05450249px;font-family:'DejaVu Sans Mono';-inkscape-font-specification:DejaVuSansMono;writing-mode:lr-tb;fill:#000000;fill-opacity:1;fill-rule:nonzero;stroke:none;stroke-width:2.23496175"
         id="text42"><tspan
           style="stroke-width:2.23496175"
           x="208.68217 226.17445 243.66675 261.15903 278.65131"
           y="181.17351"
           sodipodi:role="line"
           id="tspan40">1349 </tspan></text>
<path
         d="M 295.16034,154.35396 H 1309.833 v 33.52443 H 295.16034 Z"
         style="fill:#cad7fe;fill-opacity:1;fill-rule:nonzero;stroke:none;stroke-width:2.23496175"
         id="path44"
         inkscape:connector-curvature="0" /><text
         y="181.17351"
         x="436.07642"
         style="font-variant:normal;font-weight:normal;font-size:29.05450249px;font-family:'DejaVu Sans Mono';-inkscape-font-specification:DejaVuSansMono;writing-mode:lr-tb;fill:#000000;fill-opacity:1;fill-rule:nonzero;stroke:none;stroke-width:2.23496175"
         id="text48"><tspan
           style="stroke-width:2.23496175"
           x="436.07642 453.5687 471.061 488.55328 506.04556 523.53784 820.90668 838.39899 855.8913 873.38354 890.87585 908.36816 925.86041 943.35272 960.84497 978.33728 995.82959 1013.3218 1030.8141 1048.3064 1065.7987 1083.291 1100.7833 1118.2755 1135.7678 1153.2601 1170.7524 1188.2448 1205.7369 1223.2292 1240.7216 1258.2139 1275.7062 1293.1984"
           y="181.17351"
           sodipodi:role="line"
           id="tspan46">922 : if (data_rx = DOMINANT) then</tspan></text>
<path
         d="m 138.71302,187.87839 h 156.44732 v 33.52443 H 138.71302 Z"
         style="fill:#efe383;fill-opacity:1;fill-rule:nonzero;stroke:none;stroke-width:2.23496175"
         id="path50"
         inkscape:connector-curvature="0" /><text
         y="214.69794"
         x="208.68217"
         style="font-variant:normal;font-weight:normal;font-size:29.05450249px;font-family:'DejaVu Sans Mono';-inkscape-font-specification:DejaVuSansMono;writing-mode:lr-tb;fill:#000000;fill-opacity:1;fill-rule:nonzero;stroke:none;stroke-width:2.23496175"
         id="text54"><tspan
           style="stroke-width:2.23496175"
           x="208.68217 226.17445 243.66675 261.15903 278.65131"
           y="214.69794"
           sodipodi:role="line"
           id="tspan52">1350 </tspan></text>
<path
         d="M 295.16034,187.87839 H 1555.6787 v 33.52443 H 295.16034 Z"
         style="fill:#cad7fe;fill-opacity:1;fill-rule:nonzero;stroke:none;stroke-width:2.23496175"
         id="path56"
         inkscape:connector-curvature="0" /><text
         y="214.69794"
         x="436.07642"
         style="font-variant:normal;font-weight:normal;font-size:29.05450249px;font-family:'DejaVu Sans Mono';-inkscape-font-specification:DejaVuSansMono;writing-mode:lr-tb;fill:#000000;fill-opacity:1;fill-rule:nonzero;stroke:none;stroke-width:2.23496175"
         id="text60"><tspan
           style="stroke-width:2.23496175"
           x="436.07642 453.5687 471.061 488.55328 506.04556 523.53784 890.87585 908.36816 925.86041 943.35272 960.84497 978.33728 995.82959 1013.3218 1030.8141 1275.7062 1293.1984 1310.6907 1345.6753 1363.1676 1380.6598 1398.1521 1415.6444 1433.1367 1450.629 1468.1212 1485.6135 1503.1058 1520.5981 1538.0905"
           y="214.69794"
           sodipodi:role="line"
           id="tspan58">922 : PC_state &lt;= arbitration;</tspan></text>
<path
         d="m 138.71302,221.40282 h 156.44732 v 33.52442 H 138.71302 Z"
         style="fill:#efe383;fill-opacity:1;fill-rule:nonzero;stroke:none;stroke-width:2.23496175"
         id="path62"
         inkscape:connector-curvature="0" /><text
         y="248.22237"
         x="208.68217"
         style="font-variant:normal;font-weight:normal;font-size:29.05450249px;font-family:'DejaVu Sans Mono';-inkscape-font-specification:DejaVuSansMono;writing-mode:lr-tb;fill:#000000;fill-opacity:1;fill-rule:nonzero;stroke:none;stroke-width:2.23496175"
         id="text66"><tspan
           style="stroke-width:2.23496175"
           x="208.68217 226.17445 243.66675 261.15903 278.65131"
           y="248.22237"
           sodipodi:role="line"
           id="tspan64">1351 </tspan></text>
<path
         d="M 295.16034,221.40282 H 1486.3949 v 33.52442 H 295.16034 Z"
         style="fill:#cad7fe;fill-opacity:1;fill-rule:nonzero;stroke:none;stroke-width:2.23496175"
         id="path68"
         inkscape:connector-curvature="0" /><text
         y="248.22237"
         x="436.07642"
         style="font-variant:normal;font-weight:normal;font-size:29.05450249px;font-family:'DejaVu Sans Mono';-inkscape-font-specification:DejaVuSansMono;writing-mode:lr-tb;fill:#000000;fill-opacity:1;fill-rule:nonzero;stroke:none;stroke-width:2.23496175"
         id="text72"><tspan
           style="stroke-width:2.23496175"
           x="436.07642 453.5687 471.061 488.55328 506.04556 523.53784 890.87585 908.36816 925.86041 943.35272 960.84497 978.33728 995.82959 1013.3218 1030.8141 1048.3064 1065.7987 1083.291 1100.7833 1118.2755 1135.7678 1275.7062 1293.1984 1310.6907 1345.6753 1363.1676 1380.6598 1398.1521 1415.6444 1433.1367 1450.629 1468.1212"
           y="248.22237"
           sodipodi:role="line"
           id="tspan70">922 : sync_control_r &lt;= RE_SYNC;</tspan></text>
<path
         d="m 138.71302,254.92724 h 156.44732 v 33.52443 H 138.71302 Z"
         style="fill:#efe383;fill-opacity:1;fill-rule:nonzero;stroke:none;stroke-width:2.23496175"
         id="path74"
         inkscape:connector-curvature="0" /><text
         y="281.74677"
         x="208.68217"
         style="font-variant:normal;font-weight:normal;font-size:29.05450249px;font-family:'DejaVu Sans Mono';-inkscape-font-specification:DejaVuSansMono;writing-mode:lr-tb;fill:#000000;fill-opacity:1;fill-rule:nonzero;stroke:none;stroke-width:2.23496175"
         id="text78"><tspan
           style="stroke-width:2.23496175"
           x="208.68217 226.17445 243.66675 261.15903 278.65131"
           y="281.74677"
           sodipodi:role="line"
           id="tspan76">1352 </tspan></text>
<text
         y="281.74677"
         x="506.04556"
         style="font-variant:normal;font-weight:normal;font-size:29.05450249px;font-family:'DejaVu Sans Mono';-inkscape-font-specification:DejaVuSansMono;writing-mode:lr-tb;fill:#000000;fill-opacity:1;fill-rule:nonzero;stroke:none;stroke-width:2.23496175"
         id="text82"><tspan
           style="stroke-width:2.23496175"
           x="506.04556 523.53784"
           y="281.74677"
           sodipodi:role="line"
           id="tspan80">: </tspan></text>
<path
         d="m 138.71302,288.45167 h 156.44732 v 33.52442 H 138.71302 Z"
         style="fill:#efe383;fill-opacity:1;fill-rule:nonzero;stroke:none;stroke-width:2.23496175"
         id="path84"
         inkscape:connector-curvature="0" /><text
         y="315.27121"
         x="208.68217"
         style="font-variant:normal;font-weight:normal;font-size:29.05450249px;font-family:'DejaVu Sans Mono';-inkscape-font-specification:DejaVuSansMono;writing-mode:lr-tb;fill:#000000;fill-opacity:1;fill-rule:nonzero;stroke:none;stroke-width:2.23496175"
         id="text88"><tspan
           style="stroke-width:2.23496175"
           x="208.68217 226.17445 243.66675 261.15903 278.65131"
           y="315.27121"
           sodipodi:role="line"
           id="tspan86">1353 </tspan></text>
<text
         y="315.27121"
         x="506.04556"
         style="font-variant:normal;font-weight:normal;font-size:29.05450249px;font-family:'DejaVu Sans Mono';-inkscape-font-specification:DejaVuSansMono;writing-mode:lr-tb;fill:#000000;fill-opacity:1;fill-rule:nonzero;stroke:none;stroke-width:2.23496175"
         id="text92"><tspan
           style="stroke-width:2.23496175"
           x="506.04556 523.53784 820.90668 838.39899 855.8913 873.38354 890.87585 908.3681 925.86041 943.35272 960.84497 978.33728 995.82953 1013.3218 1030.8141 1048.3064 1065.7987 1083.291 1100.7833 1118.2755 1135.7678 1153.2601 1170.7524 1188.2448 1205.7369 1223.2292 1240.7216 1258.2139 1275.7062 1293.1984 1310.6907 1328.183 1345.6753 1363.1676"
           y="315.27121"
           sodipodi:role="line"
           id="tspan90">: -- First bit detected recessive!</tspan></text>
<path
         d="m 138.71302,321.97609 h 156.44732 v 33.52443 H 138.71302 Z"
         style="fill:#efe383;fill-opacity:1;fill-rule:nonzero;stroke:none;stroke-width:2.23496175"
         id="path94"
         inkscape:connector-curvature="0" /><text
         y="348.79562"
         x="208.68217"
         style="font-variant:normal;font-weight:normal;font-size:29.05450249px;font-family:'DejaVu Sans Mono';-inkscape-font-specification:DejaVuSansMono;writing-mode:lr-tb;fill:#000000;fill-opacity:1;fill-rule:nonzero;stroke:none;stroke-width:2.23496175"
         id="text98"><tspan
           style="stroke-width:2.23496175"
           x="208.68217 226.17445 243.66675 261.15903 278.65131"
           y="348.79562"
           sodipodi:role="line"
           id="tspan96">1354 </tspan></text>
<text
         y="348.79562"
         x="506.04556"
         style="font-variant:normal;font-weight:normal;font-size:29.05450249px;font-family:'DejaVu Sans Mono';-inkscape-font-specification:DejaVuSansMono;writing-mode:lr-tb;fill:#000000;fill-opacity:1;fill-rule:nonzero;stroke:none;stroke-width:2.23496175"
         id="text102"><tspan
           style="stroke-width:2.23496175"
           x="506.04556 523.53784 820.90668 838.39899 855.8913 873.38354"
           y="348.79562"
           sodipodi:role="line"
           id="tspan100">: else</tspan></text>
<path
         d="m 138.71302,355.50052 h 156.44732 v 33.52442 H 138.71302 Z"
         style="fill:#efe383;fill-opacity:1;fill-rule:nonzero;stroke:none;stroke-width:2.23496175"
         id="path104"
         inkscape:connector-curvature="0" /><text
         y="382.32007"
         x="208.68217"
         style="font-variant:normal;font-weight:normal;font-size:29.05450249px;font-family:'DejaVu Sans Mono';-inkscape-font-specification:DejaVuSansMono;writing-mode:lr-tb;fill:#000000;fill-opacity:1;fill-rule:nonzero;stroke:none;stroke-width:2.23496175"
         id="text108"><tspan
           style="stroke-width:2.23496175"
           x="208.68217 226.17445 243.66675 261.15903 278.65131"
           y="382.32007"
           sodipodi:role="line"
           id="tspan106">1355 </tspan></text>
<path
         d="M 295.16034,355.50052 H 1450.6355 v 33.52442 H 295.16034 Z"
         style="fill:#ff6230;fill-opacity:1;fill-rule:nonzero;stroke:none;stroke-width:2.23496175"
         id="path110"
         inkscape:connector-curvature="0" /><text
         y="382.32007"
         x="471.061"
         style="font-variant:normal;font-weight:normal;font-size:29.05450249px;font-family:'DejaVu Sans Mono';-inkscape-font-specification:DejaVuSansMono;writing-mode:lr-tb;fill:#000000;fill-opacity:1;fill-rule:nonzero;stroke:none;stroke-width:2.23496175"
         id="text114"><tspan
           style="stroke-width:2.23496175"
           x="471.061 488.55328 506.04556 523.53784 890.87585 908.3681 925.86041 943.35272 960.84497 978.33728 995.82959 1013.3218 1030.8141 1275.7062 1293.1984 1310.6907 1345.6753 1363.1676 1380.6598 1398.1521 1415.6444 1433.1367"
           y="382.32007"
           sodipodi:role="line"
           id="tspan112">0 : PC_state &lt;= error;</tspan></text>
<path
         d="m 138.71302,389.02494 h 156.44732 v 33.52443 H 138.71302 Z"
         style="fill:#efe383;fill-opacity:1;fill-rule:nonzero;stroke:none;stroke-width:2.23496175"
         id="path116"
         inkscape:connector-curvature="0" /><text
         y="415.84448"
         x="208.68217"
         style="font-variant:normal;font-weight:normal;font-size:29.05450249px;font-family:'DejaVu Sans Mono';-inkscape-font-specification:DejaVuSansMono;writing-mode:lr-tb;fill:#000000;fill-opacity:1;fill-rule:nonzero;stroke:none;stroke-width:2.23496175"
         id="text120"><tspan
           style="stroke-width:2.23496175"
           x="208.68217 226.17445 243.66675 261.15903 278.65131"
           y="415.84448"
           sodipodi:role="line"
           id="tspan118">1356 </tspan></text>
<path
         d="M 295.16034,389.02494 H 1399.2314 v 33.52443 H 295.16034 Z"
         style="fill:#ff6230;fill-opacity:1;fill-rule:nonzero;stroke:none;stroke-width:2.23496175"
         id="path122"
         inkscape:connector-curvature="0" /><text
         y="415.84448"
         x="471.061"
         style="font-variant:normal;font-weight:normal;font-size:29.05450249px;font-family:'DejaVu Sans Mono';-inkscape-font-specification:DejaVuSansMono;writing-mode:lr-tb;fill:#000000;fill-opacity:1;fill-rule:nonzero;stroke:none;stroke-width:2.23496175"
         id="text126"><tspan
           style="stroke-width:2.23496175"
           x="471.061 488.55328 506.04556 523.53784 890.87585 908.3681 925.86041 943.35272 960.84497 978.33728 995.82959 1013.3218 1030.8141 1048.3064 1065.7987 1083.291 1100.7833 1118.2755 1135.7678 1153.2601 1170.7524 1188.2448 1205.7369 1223.2292 1240.7216 1258.2139 1275.7062 1293.1984 1310.6907 1328.183 1345.6753 1363.1676 1380.6598"
           y="415.84448"
           sodipodi:role="line"
           id="tspan124">0 : if (OP_state = reciever) then</tspan></text>
<path
         d="m 138.71302,422.54937 h 156.44732 v 33.52442 H 138.71302 Z"
         style="fill:#efe383;fill-opacity:1;fill-rule:nonzero;stroke:none;stroke-width:2.23496175"
         id="path128"
         inkscape:connector-curvature="0" /><text
         y="449.3689"
         x="208.68217"
         style="font-variant:normal;font-weight:normal;font-size:29.05450249px;font-family:'DejaVu Sans Mono';-inkscape-font-specification:DejaVuSansMono;writing-mode:lr-tb;fill:#000000;fill-opacity:1;fill-rule:nonzero;stroke:none;stroke-width:2.23496175"
         id="text132"><tspan
           style="stroke-width:2.23496175"
           x="208.68217 226.17445 243.66675 261.15903 278.65131"
           y="449.3689"
           sodipodi:role="line"
           id="tspan130">1357 </tspan></text>
<path
         d="M 295.16034,422.54937 H 1414.8762 v 33.52442 H 295.16034 Z"
         style="fill:#ff6230;fill-opacity:1;fill-rule:nonzero;stroke:none;stroke-width:2.23496175"
         id="path134"
         inkscape:connector-curvature="0" /><text
         y="449.3689"
         x="471.061"
         style="font-variant:normal;font-weight:normal;font-size:29.05450249px;font-family:'DejaVu Sans Mono';-inkscape-font-specification:DejaVuSansMono;writing-mode:lr-tb;fill:#000000;fill-opacity:1;fill-rule:nonzero;stroke:none;stroke-width:2.23496175"
         id="text138"><tspan
           style="stroke-width:2.23496175"
           x="471.061 488.55328 506.04556 523.53784 960.84497 978.33728 995.82959 1013.3218 1030.8141 1048.3064 1065.7987 1083.291 1100.7833 1118.2755 1275.7062 1293.1984 1310.6907 1345.6753 1363.1676 1380.6598 1398.1521"
           y="449.3689"
           sodipodi:role="line"
           id="tspan136">0 : inc_one_r &lt;= '1';</tspan></text>
<path
         d="m 138.71302,456.07379 h 156.44732 v 33.52443 H 138.71302 Z"
         style="fill:#efe383;fill-opacity:1;fill-rule:nonzero;stroke:none;stroke-width:2.23496175"
         id="path140"
         inkscape:connector-curvature="0" /><text
         y="482.89334"
         x="208.68217"
         style="font-variant:normal;font-weight:normal;font-size:29.05450249px;font-family:'DejaVu Sans Mono';-inkscape-font-specification:DejaVuSansMono;writing-mode:lr-tb;fill:#000000;fill-opacity:1;fill-rule:nonzero;stroke:none;stroke-width:2.23496175"
         id="text144"><tspan
           style="stroke-width:2.23496175"
           x="208.68217 226.17445 243.66675 261.15903 278.65131"
           y="482.89334"
           sodipodi:role="line"
           id="tspan142">1358 </tspan></text>
<text
         y="482.89334"
         x="506.04556"
         style="font-variant:normal;font-weight:normal;font-size:29.05450249px;font-family:'DejaVu Sans Mono';-inkscape-font-specification:DejaVuSansMono;writing-mode:lr-tb;fill:#000000;fill-opacity:1;fill-rule:nonzero;stroke:none;stroke-width:2.23496175"
         id="text148"><tspan
           style="stroke-width:2.23496175"
           x="506.04556 523.53784 890.87585 908.3681 925.86041 943.35272 960.84497 978.33728 995.82953"
           y="482.89334"
           sodipodi:role="line"
           id="tspan146">: end if;</tspan></text>
<path
         d="m 138.71302,489.59822 h 156.44732 v 33.52443 H 138.71302 Z"
         style="fill:#efe383;fill-opacity:1;fill-rule:nonzero;stroke:none;stroke-width:2.23496175"
         id="path150"
         inkscape:connector-curvature="0" /><text
         y="516.41779"
         x="208.68217"
         style="font-variant:normal;font-weight:normal;font-size:29.05450249px;font-family:'DejaVu Sans Mono';-inkscape-font-specification:DejaVuSansMono;writing-mode:lr-tb;fill:#000000;fill-opacity:1;fill-rule:nonzero;stroke:none;stroke-width:2.23496175"
         id="text154"><tspan
           style="stroke-width:2.23496175"
           x="208.68217 226.17445 243.66675 261.15903 278.65131"
           y="516.41779"
           sodipodi:role="line"
           id="tspan152">1359 </tspan></text>
<text
         y="516.41779"
         x="506.04556"
         style="font-variant:normal;font-weight:normal;font-size:29.05450249px;font-family:'DejaVu Sans Mono';-inkscape-font-specification:DejaVuSansMono;writing-mode:lr-tb;fill:#000000;fill-opacity:1;fill-rule:nonzero;stroke:none;stroke-width:2.23496175"
         id="text158"><tspan
           style="stroke-width:2.23496175"
           x="506.04556 523.53784 820.90668 838.39899 855.8913 873.38354 890.87585 908.3681 925.86041"
           y="516.41779"
           sodipodi:role="line"
           id="tspan156">: end if;</tspan></text>
<path
         d="m 138.71302,523.12265 h 156.44732 v 33.52442 H 138.71302 Z"
         style="fill:#efe383;fill-opacity:1;fill-rule:nonzero;stroke:none;stroke-width:2.23496175"
         id="path160"
         inkscape:connector-curvature="0" /><text
         y="549.9422"
         x="208.68217"
         style="font-variant:normal;font-weight:normal;font-size:29.05450249px;font-family:'DejaVu Sans Mono';-inkscape-font-specification:DejaVuSansMono;writing-mode:lr-tb;fill:#000000;fill-opacity:1;fill-rule:nonzero;stroke:none;stroke-width:2.23496175"
         id="text164"><tspan
           style="stroke-width:2.23496175"
           x="208.68217 226.17445 243.66675 261.15903 278.65131"
           y="549.9422"
           sodipodi:role="line"
           id="tspan162">1360 </tspan></text>
<path
         d="M 295.16034,523.12265 H 1414.8762 v 33.52442 H 295.16034 Z"
         style="fill:#cad7fe;fill-opacity:1;fill-rule:nonzero;stroke:none;stroke-width:2.23496175"
         id="path166"
         inkscape:connector-curvature="0" /><text
         y="549.9422"
         x="436.07642"
         style="font-variant:normal;font-weight:normal;font-size:29.05450249px;font-family:'DejaVu Sans Mono';-inkscape-font-specification:DejaVuSansMono;writing-mode:lr-tb;fill:#000000;fill-opacity:1;fill-rule:nonzero;stroke:none;stroke-width:2.23496175"
         id="text170"><tspan
           style="stroke-width:2.23496175"
           x="436.07642 453.5687 471.061 488.55328 506.04556 523.53784 820.90668 838.39899 855.8913 873.38354 890.87585 908.36816 925.86041 943.35272 960.84497 978.33728 995.82959 1275.7062 1293.1984 1310.6907 1345.6753 1363.1676 1380.6598 1398.1521"
           y="549.9422"
           sodipodi:role="line"
           id="tspan168">922 : FSM_Preset &lt;= '1';</tspan></text>
<path
         d="M 138.71302,556.64707 H 295.16034 V 590.1715 H 138.71302 Z"
         style="fill:#efe383;fill-opacity:1;fill-rule:nonzero;stroke:none;stroke-width:2.23496175"
         id="path172"
         inkscape:connector-curvature="0" /><text
         y="583.46661"
         x="208.68217"
         style="font-variant:normal;font-weight:normal;font-size:29.05450249px;font-family:'DejaVu Sans Mono';-inkscape-font-specification:DejaVuSansMono;writing-mode:lr-tb;fill:#000000;fill-opacity:1;fill-rule:nonzero;stroke:none;stroke-width:2.23496175"
         id="text176"><tspan
           style="stroke-width:2.23496175"
           x="208.68217 226.17445 243.66675 261.15903 278.65131"
           y="583.46661"
           sodipodi:role="line"
           id="tspan174">1361 </tspan></text>
<text
         y="583.46661"
         x="506.04556"
         style="font-variant:normal;font-weight:normal;font-size:29.05450249px;font-family:'DejaVu Sans Mono';-inkscape-font-specification:DejaVuSansMono;writing-mode:lr-tb;fill:#000000;fill-opacity:1;fill-rule:nonzero;stroke:none;stroke-width:2.23496175"
         id="text180"><tspan
           style="stroke-width:2.23496175"
           x="506.04556 523.53784 750.93756 768.42987 785.92212 803.41443 820.90668 838.39899 855.8913 873.38354"
           y="583.46661"
           sodipodi:role="line"
           id="tspan178">: end if; </tspan></text>
<path
         d="m 138.71302,590.1715 h 156.44732 v 33.52442 H 138.71302 Z"
         style="fill:#efe383;fill-opacity:1;fill-rule:nonzero;stroke:none;stroke-width:2.23496175"
         id="path182"
         inkscape:connector-curvature="0" /><text
         y="616.99103"
         x="208.68217"
         style="font-variant:normal;font-weight:normal;font-size:29.05450249px;font-family:'DejaVu Sans Mono';-inkscape-font-specification:DejaVuSansMono;writing-mode:lr-tb;fill:#000000;fill-opacity:1;fill-rule:nonzero;stroke:none;stroke-width:2.23496175"
         id="text186"><tspan
           style="stroke-width:2.23496175"
           x="208.68217 226.17445 243.66675 261.15903 278.65131"
           y="616.99103"
           sodipodi:role="line"
           id="tspan184">1362 </tspan></text>
<text
         y="616.99103"
         x="506.04556"
         style="font-variant:normal;font-weight:normal;font-size:29.05450249px;font-family:'DejaVu Sans Mono';-inkscape-font-specification:DejaVuSansMono;writing-mode:lr-tb;fill:#000000;fill-opacity:1;fill-rule:nonzero;stroke:none;stroke-width:2.23496175"
         id="text190"><tspan
           style="stroke-width:2.23496175"
           x="506.04556 523.53784"
           y="616.99103"
           sodipodi:role="line"
           id="tspan188">: </tspan></text>
<path
         d="m 138.71302,623.69592 h 156.44732 v 33.52443 H 138.71302 Z"
         style="fill:#efe383;fill-opacity:1;fill-rule:nonzero;stroke:none;stroke-width:2.23496175"
         id="path192"
         inkscape:connector-curvature="0" /><text
         y="650.51544"
         x="208.68217"
         style="font-variant:normal;font-weight:normal;font-size:29.05450249px;font-family:'DejaVu Sans Mono';-inkscape-font-specification:DejaVuSansMono;writing-mode:lr-tb;fill:#000000;fill-opacity:1;fill-rule:nonzero;stroke:none;stroke-width:2.23496175"
         id="text196"><tspan
           style="stroke-width:2.23496175"
           x="208.68217 226.17445 243.66675 261.15903 278.65131"
           y="650.51544"
           sodipodi:role="line"
           id="tspan194">1363 </tspan></text>
<text
         y="650.51544"
         x="506.04556"
         style="font-variant:normal;font-weight:normal;font-size:29.05450249px;font-family:'DejaVu Sans Mono';-inkscape-font-specification:DejaVuSansMono;writing-mode:lr-tb;fill:#000000;fill-opacity:1;fill-rule:nonzero;stroke:none;stroke-width:2.23496175"
         id="text200"><tspan
           style="stroke-width:2.23496175"
           x="506.04556 523.53784 680.96844 698.46069 715.953 733.44525 750.93756 768.42987 785.92212"
           y="650.51544"
           sodipodi:role="line"
           id="tspan198">: end if;</tspan></text>
<path
         d="m 138.71302,657.22035 h 156.44732 v 33.52442 H 138.71302 Z"
         style="fill:#efe383;fill-opacity:1;fill-rule:nonzero;stroke:none;stroke-width:2.23496175"
         id="path202"
         inkscape:connector-curvature="0" /></g></g></svg>