digraph G {

graph [margin=0];

compound=true;
rankdir=LR;
//newrank=true;

_desc [label="Black = HW\nColor = SW cmd",shape=rect];

empty [label="Empty"];
abrtinprg [label="Abort In Progress",color=grey,fontcolor=grey];

subgraph cluster_dne {
	label = "Done";
	rankdir="TB"
	ok [label="TX OK"];
	err [label="TX Error"];
	abrt [label="Aborted"];
}

subgraph cluster_tx {
	rank="same";
	rdy [label="TX Ready"];
	inprg [label="TX In Progress"];
}

empty -> rdy [color=green];

// HW
edge [color=black]
rdy -> inprg [constraint=false];
inprg -> rdy [label="Local Arbitration",constraint=false];

inprg -> err;
inprg -> ok;

// Abort SW
edge [color=purple]
inprg -> abrtinprg;
rdy -> abrt;

// Abort HW
edge [color=black]
abrtinprg -> abrt;
abrtinprg -> err [style=dashed];
abrtinprg -> ok;

// dne -> {rdy, empty} SW
ok -> rdy [ltail=cluster_dne,color=green];
ok -> empty [ltail=cluster_dne,color=red];

}